dump.vcd
$date
	Fri Aug 30 08:57:50 2024
$end

$version
	Synopsys VCS version U-2023.03-SP2_Full64
$end

$timescale
	1ns
$end

$comment Csum: 1 564d00bb1ff34719 $end


$scope module top $end
$var reg 1 ! clk $end
$var reg 1 " rst_n $end

$scope module i_inf $end
$var reg 1 # clk $end
$var reg 1 $ rst_n $end
$var reg 8 % count [7:0] $end
$var reg 8 & data_in [7:0] $end
$var reg 1 ' load $end
$var reg 1 ( enable $end
$upscope $end


$scope module a1 $end
$upscope $end

$upscope $end

$enddefinitions $end

#0
$dumpvars
0!
1"
bxxxxxxxx &
bxxxxxxxx %
0#
1$
x(
x'
$end
#5
1!
1#
#10
0!
0#
#15
0"
0$
1!
1#
b00000000 %
b00000000 &
0(
0'
#20
0!
0#
#25
1!
1#
#30
1"
1$
0!
0#
#35
1!
1#
1'
b00101000 &
1(
#40
0!
0#
#45
1!
1#
b00101000 %
0'
b11011111 &
#50
0!
0#
#55
1!
1#
b00101001 %
b10111000 &
#60
0!
0#
#65
1!
1#
b00101010 %
b00010001 &
#70
0!
0#
#75
1!
1#
b00101011 %
1'
b01011100 &
#80
0!
0#
#85
1!
1#
b01011100 %
0'
b00100010 &
#90
0!
0#
#95
1!
1#
b01011101 %
1'
b01000111 &
#100
0!
0#
#105
1!
1#
b01000111 %
b00011001 &
#110
0!
0#
#115
1!
1#
b00011001 %
0'
b11000010 &
#120
0!
0#
#125
1!
1#
b00011010 %
1'
b11010001 &
#130
0!
0#
#135
1!
1#
b11010001 %
b11010010 &
#140
0!
0#
#145
1!
1#
b11010010 %
b00101110 &
#150
0!
0#
#155
1!
1#
b00101110 %
b11000101 &
#160
0!
0#
#165
1!
1#
b11000101 %
b11101110 &
#170
0!
0#
#175
1!
1#
b11101110 %
b00111001 &
#180
0!
0#
#185
1!
1#
b00111001 %
b00100100 &
#190
0!
0#
#195
1!
1#
b00100100 %
0'
b10100010 &
#200
0!
0#
#205
1!
1#
b00100101 %
1'
b01010000 &
0(
#210
0!
0#
#215
1!
1#
b01010000 %
b00000000 &
1(
#220
0!
0#
#225
1!
1#
b00000000 %
b10001000 &
#230
0!
0#
#235
1!
1#
b10001000 %
